…
# 3 Import data

``` r
# ARGs (Antibiotic Resistance Genes)
args_data_filepath <- paste0("data/results/resfinder/args_table", batch_number, ".csv")
args_data <- read_csv(args_data_filepath, col_types = cols("sample_name" = col_character()))
## Fix/extract name of samples
args_data <- args_data %>%
  mutate(sample_name = str_extract(sample_name, "^\\w+.\\d+"))
args_data
```

    ## # A tibble: 6,306 x 162
    ##    sample_name    NarA  NarB aac(3~1 aac(3~2 aac(6~3 aac(6~4 aadA1 aadA2 aadE-~5
    ##    <chr>         <dbl> <dbl>   <dbl>   <dbl>   <dbl>   <dbl> <dbl> <dbl>   <dbl>
    ##  1 GCA_01263718~     0     0       0       0       0       0     0     0       0
    ##  2 GCA_01263728~     0     0       0       0       0       0     0     0       0
    ##  3 GCA_01263731~     0     0       0       0       0       0     0     0       0
    ##  4 GCA_01263738~     0     0       0       0       0       0     0     0       0
    ##  5 GCA_01263742~     0     0       0       0       0       0     0     0       0
    ##  6 GCA_01263744~     0     0       0       0       0       0     0     0       0
    ##  7 GCA_01263748~     0     0       0       0       0       0     0     0       0
    ##  8 GCA_01263786~     0     0       0       0       0       0     0     0       0
    ##  9 GCA_01264252~     0     0       0       0       0       0     0     0       0
    ## 10 GCA_01264264~     0     0       0       0       0       0     0     0       0
    ## # ... with 6,296 more rows, 152 more variables: `ant(2'')-Ia` <dbl>,
    ## #   `ant(6)-Ia` <dbl>, `aph(2'')-Ia` <dbl>, `aph(2'')-Ic` <dbl>,
    ## #   `aph(2'')-If` <dbl>, `aph(2'')-Ig` <dbl>, `aph(3'')-Ib` <dbl>,
    ## #   `aph(3')-III` <dbl>, `aph(3')-IIa` <dbl>, `aph(3')-Ia` <dbl>,
    ## #   `aph(6)-Ic` <dbl>, `aph(6)-Id` <dbl>, `blaCMY-2` <dbl>, `blaHERA-3` <dbl>,
    ## #   `blaOXA-184` <dbl>, `blaOXA-193` <dbl>, `blaOXA-448` <dbl>,
    ## #   `blaOXA-449` <dbl>, `blaOXA-450` <dbl>, `blaOXA-451` <dbl>, ...
…
``` r
# Fix/extract name of samples
card_data <- card_data %>%
  mutate(SAMPLE_ID = str_extract(SAMPLE_ID, "^\\w+.\\d+"))
card_data
```

    ## # A tibble: 243,992 x 27
    ##    TAX_ID SAMPLE_ID  ORF_ID Contig  Start   Stop Orien~1 Cut_Off Pass_~2 Best_~3
    ##     <dbl> <chr>      <chr>  <chr>   <dbl>  <dbl> <chr>   <chr>     <dbl>   <dbl>
    ##  1    195 GCA_00528~ AACMV~ AACMV~  40782  41555 +       Perfect     500    516.
    ##  2    195 GCA_00528~ AACMV~ AACMV~   1086   3005 +       Strict      300   1322.
    ##  3    195 GCA_00528~ AACMV~ AACMV~  22802  23575 +       Perfect     500    516.
    ##  4    195 GCA_00528~ AACMV~ AACMV~   1107   3026 +       Strict      300   1322.
    ##  5    195 GCA_00528~ AACMV~ AACMV~ 223686 226253 +       Strict     1200   1496.
    ##  6    195 GCA_00528~ AACMR~ AACMR~  39847  40620 +       Perfect     500    516.
    ##  7    195 GCA_00528~ AACMR~ AACMR~  18355  20274 +       Strict      300   1304.
    ##  8    195 GCA_00528~ AACMR~ AACMR~   3297   5216 +       Strict      300   1304.
    ##  9    195 GCA_00528~ AACMR~ AACMR~   2577   3350 +       Perfect     500    516.
    ## 10    197 GCA_00529~ AACNR~ AACNR~  20452  21225 -       Perfect     500    516.
    ## # ... with 243,982 more rows, 17 more variables: Best_Hit_ARO <chr>,
    ## #   Best_Identities <dbl>, ARO <dbl>, Model_type <chr>,
    ## #   SNPs_in_Best_Hit_ARO <chr>, Other_SNPs <lgl>, `Drug Class` <chr>,
    ## #   `Resistance Mechanism` <chr>, `AMR Gene Family` <chr>, Predicted_DNA <chr>,
    ## #   Predicted_Protein <chr>, CARD_Protein_Sequence <chr>,
    ## #   `Percentage Length of Reference Sequence` <dbl>, ID <chr>, Model_ID <chr>,
    ## #   Nudged <chr>, Note <chr>, and abbreviated variable names ...

``` r
# AMR (Antimicrobial Resistance) labels
amr_labels <- read_csv("data/results/data_collection_ncbi/amr_labels.csv", col_types = cols("SampleID" = col_character()))
amr_labels
```

    ## # A tibble: 6,242 x 23
    ##    SampleID     amikacin amoxi~1 ampic~2 cefox~3 cefti~4 ceftr~5 chlor~6 cipro~7
    ##    <chr>           <dbl>   <dbl>   <dbl>   <dbl>   <dbl>   <dbl>   <dbl>   <dbl>
    ##  1 SAMN04256112        0       1       1       1       1       1       0       0
    ##  2 SAMN04256111        0       0       0       0       0       0       0       0
    ##  3 SAMN04256110        0       0       0       0       0       0       0       0
    ##  4 SAMN04256109        0       0       0       0       0       0       0       0
    ##  5 SAMN04256108        0       0       0       0       0       0       0       0
    ##  6 SAMN04256107        0       0       1       0       0       0       0       0
    ##  7 SAMN04256106        0       0       0       0       0       0       0       0
    ##  8 SAMN04256105        0       1       1       1       1       1       0       0
    ##  9 SAMN04256104        0       1       1       1       1       1       0       0
    ## 10 SAMN04256103        0       1       1       1       1       1       0       0
    ## # ... with 6,232 more rows, 14 more variables: gentamicin <dbl>,
    ## #   kanamycin <dbl>, `nalidixic acid` <dbl>, streptomycin <dbl>,
    ## #   sulfisoxazole <dbl>, tetracycline <dbl>,
    ## #   `trimethoprim-sulfamethoxazole` <dbl>, sulfamethoxazole <dbl>,
    ## #   azithromycin <dbl>, meropenem <dbl>, clindamycin <dbl>, erythromycin <dbl>,
    ## #   florfenicol <dbl>, telithromycin <dbl>, and abbreviated variable names
    ## #   1: `amoxicillin-clavulanic acid`, 2: ampicillin, 3: cefoxitin, ...
…
    ## Rows: 6208 Columns: 3
    ## -- Column specification --------------------------------------------------------
    ## Delimiter: "\t"
    ## chr (2): biosample_accession, assembly_accession
    ## dbl (1): tax_id
    ## 
    ## i Use `spec()` to retrieve the full column specification for this data.
    ## i Specify the column types or set `show_col_types = FALSE` to quiet this message.

``` r
samples_metadata
```

    ## # A tibble: 6,208 x 3
    ##    biosample_accession assembly_accession tax_id
    ##    <chr>               <chr>               <dbl>
    ##  1 SAMN03842331        GCA_006813885.2     28901
    ##  2 SAMN03988294        GCA_008404065.2     28901
    ##  3 SAMN05596322        GCA_022569775.1     28901
    ##  4 SAMN04563576        GCA_020381005.1       562
    ##  5 SAMN04588431        GCA_008474925.2     28901
    ##  6 SAMN04530411        GCA_008471245.2     28901
    ##  7 SAMN04536994        GCA_008471305.2     28901
    ##  8 SAMN05440588        GCA_008524845.2     28901
    ##  9 SAMN04605174        GCA_008412045.2     28901
    ## 10 SAMN04964189        GCA_008474065.2     28901
    ## # ... with 6,198 more rows
…
- 1: resistance gene
- 0: non-resistance gene

### 4.1.1 Overview of the data

``` r
# Sum of all different ARG genes (sum all columns that have at least one 1)
args_data %>%
  summarise_all(~ sum(.x == 1, na.rm = TRUE)) %>%
  gather(key = "gene", value = "count") %>%
  filter(count > 0) %>%
  arrange(desc(count))
```

    ## # A tibble: 144 x 2
    ##    gene        count
    ##    <chr>       <int>
    ##  1 aac(6')-Iaa  5282
    ##  2 tet(A)       1533
    ##  3 aph(3'')-Ib  1419
    ##  4 aph(6)-Id    1333
    ##  5 tet(B)       1135
    ##  6 fosA7        1047
    ##  7 sul2          978
    ##  8 blaTEM-1B     786
    ##  9 blaCMY-2      722
    ## 10 sul1          688
    ## # ... with 134 more rows

### 4.1.2 Null values detection

``` r
# Count number of nulls per sample
args_data %>%
  mutate(nulls = rowSums(is.na(select(., -sample_name)))) %>%
  select(sample_name, nulls) %>%
  arrange(desc(nulls))
```

    ## # A tibble: 6,208 x 2
    ##    sample_name     nulls
    ##    <chr>           <dbl>
    ##  1 GCA_012637185.1     0
    ##  2 GCA_012637285.1     0
    ##  3 GCA_012637315.1     0
    ##  4 GCA_012637385.1     0
    ##  5 GCA_012637425.1     0
    ##  6 GCA_012637445.1     0
    ##  7 GCA_012637485.1     0
    ##  8 GCA_012637865.1     0
    ##  9 GCA_012642525.1     0
    ## 10 GCA_012642645.1     0
    ## # ... with 6,198 more rows

We have no nulls values for ARGs.

### 4.1.3 Outliers detection

``` r
# For each sample, how many resistance genes are present?
args_data %>%
  mutate(count = rowSums(select(., -sample_name))) %>%
  select(sample_name, count) %>%
  arrange(desc(count))
```

    ## # A tibble: 6,208 x 2
    ##    sample_name     count
    ##    <chr>           <dbl>
    ##  1 GCA_007758465.1    23
    ##  2 GCA_008551155.1    21
    ##  3 GCA_008477615.1    20
    ##  4 GCA_008469665.1    19
    ##  5 GCA_007194375.1    19
    ##  6 GCA_007742235.1    18
    ##  7 GCA_008478965.1    18
    ##  8 GCA_008552695.1    18
    ##  9 GCA_008474545.1    18
    ## 10 GCA_007763135.1    18
    ## # ... with 6,198 more rows
…
A total of 9 antibiotics have been removed.

#### 4.3.2.2 Outliers analysis

``` r
# Count number of resistant antibiotics per sample
amr_labels %>%
  mutate(n_resistant = rowSums(select(., -`SampleID`))) %>%
  select(`SampleID`, n_resistant) %>%
  arrange(desc(n_resistant))
```

    ## # A tibble: 6,207 x 2
    ##    SampleID        n_resistant
    ##    <chr>                 <dbl>
    ##  1 GCA_008552695.1          11
    ##  2 GCA_008478965.1          11
    ##  3 GCA_008474545.1          11
    ##  4 GCA_008408645.1          11
    ##  5 GCF_001478975.1          11
    ##  6 GCA_007188055.1          10
    ##  7 GCA_007760595.1          10
    ##  8 GCA_007191495.1          10
    ##  9 GCA_007818525.1          10
    ## 10 GCA_007196455.1          10
    ## # ... with 6,197 more rows
…
